<?php
/***************************************************************************
*  @PHP Web Application.
*  @version			1.0.0 
*  @copyright		Copyright (C) 2011 Tran Thanh Sang. All rights reserved.
*  @Released under 	Tran Thanh Sang
*  @Email			sangtialia@gmail.com
*  @Date			Jan 2011
***************************************************************************/

defined( '_EXEC' ) or die( 'Quyen truy cap nay khong cho phep.' );

class TableDocument_word_ref extends Table 
{

	var $id 			= null;
	
	var $document_id	= null;
	
	var $word_id		= null;
	
	var $word_frequency	= null;
	

	function __construct()
	{
		parent::__construct("#__document_word_ref","id");
		
	}
	
}

?>