Product_id,product_sku,product_name,product_price,product_currency,product_unit,product_parent_id
224,3CRWDR300A-73,"3Com ADSL Wireless 11n Firewall Router, Model WL-603",0.00,USD,piece,0
216,3CRDSF9PWR,"3Com OfficeConnect Managed Fast Ethernet PoE Switch",0.00,USD,piece,0
242,3CRWER200-75,"3Com OfficeConnect Wireless 11g 108Mbps Cable/DSL Router",0.00,USD,piece,0
225,3CRWE776075,"3Com Wireless 7760 11a/b/g PoE Access Point",0.00,USD,piece,0
226,3CRWE876075,"3Com Wireless 8760 11a/b/g PoE Access Point",0.00,USD,piece,0
163,3CWXGAMA-ACCESS,"3Com Wireless Guest Access Access Upgrade License",0.00,USD,piece,0
165,3CWXGAMA-BASE,"3Com Wireless Guest Access Manager Base License",0.00,USD,piece,0
166,3CWXGAMA-ENT,"3Com Wireless Guest Access Manager Enterprise Upgrade License",0.00,USD,piece,0
245,3CWX4400RPSA,"3Com Wireless LAN Controller Spare Power Supply WX4400",0.00,USD,piece,0
227,3CRWX385075A,"3Com Wireless LAN Managed Access Point 3850",0.00,USD,piece,0
228,3CRWX395075A,"3Com Wireless LAN Managed Access Point 3950",0.00,USD,piece,0
164,3CWXM10A,"3Com Wireless LAN Switch Manager for up to 10 WXs",0.00,USD,piece,0
8,3CRWE7,"3Com® Wireless 7760 11a/b/g PoE Access Point",249.00,USD,piece,0
213,3C16792C,"OfficeConnect Fast Ethernet Switch 16",0.00,USD,piece,0
243,3CRWE454G75,"OfficeConnect Wireless 54Mbps 11g Access Point",0.00,USD,piece,0
244,3CAPMOUNT,"Optional Drop-Ceiling Mount for 95509150 11n APs",0.00,USD,piece,0
468,3CBLSF26H,"3Com Baseline Switch 2226 Plus",0.00,USD,piece,217
218,3CBLSF50H,"3Com Baseline Switch 2250 Plus",0.00,USD,piece,217
469,3C16470B,"3Com Baseline Switch 2016",0.00,USD,piece,219
220,3C16471B,"3Com Baseline Switch 2024",0.00,USD,piece,219
221,3CBLUF26,"3Com Baseline Switch 2026",0.00,USD,piece,219
222,3CBLUG16A,"3Com Baseline Switch 2816",0.00,USD,piece,219
223,3CBLUG24A,"3Com Baseline Switch 2824",0.00,USD,piece,219
232,3CRBWX220095A120,"3Com Wireless LAN Controller WX2200 - 120 Licence Bundle",0.00,USD,piece,231
239,3CRBWX220095144,"3Com Wireless LAN Controller WX2200 - 144 Licence Bundle",0.00,USD,piece,231
240,3CRBWX220095168,"3Com Wireless LAN Controller WX2200 - 168 Licence Bundle",0.00,USD,piece,231
241,3CRBWX220095192,"3Com Wireless LAN Controller WX2200 - 192 Licence Bundle",0.00,USD,piece,231
233,3CRBWX220095A48,"3Com Wireless LAN Controller WX2200 - 48 Licence Bundle",0.00,USD,piece,231
237,3CRBWX220095A72,"3Com Wireless LAN Controller WX2200 - 72 Licence Bundle",0.00,USD,piece,231
238,3CRBWX220095A96,"3Com Wireless LAN Controller WX2200 - 96 Licence Bundle",0.00,USD,piece,231
167,3CR17660-91,"3Com Switch 4200G 12-Port",0.00,USD,piece,307
168,3CR17661-91,"3Com Switch 4200G 24-Port",0.00,USD,piece,307
169,3CR17662-91,"3Com Switch 4200G 48-Port",0.00,USD,piece,307
170,3CR17671-91,"3Com Switch 4200G PWR 24-Port",0.00,USD,piece,307
172,3CR17332-91,"3Com Switch 4210 18-Port",0.00,USD,piece,308
173,3CR17333-91,"3Com Switch 4210 26-Port",0.00,USD,piece,308
174,3CR17334-91,"3Com Switch 4210 52-Port",0.00,USD,piece,308
171,3CR17331-91,"3Com Switch 4210 9-Port",0.00,USD,piece,308
309,3CR17342-91,"3Com Switch 4210 PWR 18-Port",0.00,USD,piece,308
176,3CR17343-91,"3Com Switch 4210 PWR 26-Port",0.00,USD,piece,308
175,3CR17341-91,"3Com Switch 4210 PWR 9-Port",0.00,USD,piece,308
177,3CR17561-91,"3Com Switch 4500 26-Port",0.00,USD,piece,310
178,3CR17562-91,"3Com Switch 4500 50-Port",0.00,USD,piece,310
179,3CR17571-91,"3Com Switch 4500 PWR 26-Port",0.00,USD,piece,310
180,3CR17572-91,"3Com Switch 4500 PWR 50-Port",0.00,USD,piece,310
181,3CR17761-91,"3Com Switch 4500G 24-Port",0.00,USD,piece,311
182,3CR17762-91,"3Com Switch 4500G 48-Port",0.00,USD,piece,311
183,3CR17771-91,"3Com Switch 4500G PWR 24-Port",0.00,USD,piece,311
184,3CR17772-91,"3Com Switch 4500G PWR 48-Port",0.00,USD,piece,311
185,3CRS48G-24-91,"3Com Switch 4800G 24-Port",0.00,USD,piece,312
189,3CRS48G-24S-91,"3Com Switch 4800G 24-Port SFP",0.00,USD,piece,312
186,3CRS48G-48-91,"3Com Switch 4800G 48-Port",0.00,USD,piece,312
187,3CRS48G-24P-91,"3Com Switch 4800G PWR 24-Port",0.00,USD,piece,312
188,3CRS48G-48P-91,"3Com Switch 4800G PWR 48-Port",0.00,USD,piece,312
190,3CR17250-91,"Switch 5500G-EI 24 Port",0.00,USD,piece,313
191,3CR17251-91,"Switch 5500G-EI 48-Port",0.00,USD,piece,313
192,3CR17252-91,"Switch 5500G-EI PWR 24-Port",0.00,USD,piece,313
193,3CR17253-91,"Switch 5500G-EI PWR 48-Port",0.00,USD,piece,313
194,3CR17258-91,"Switch 5500G-EI SFP 24-Port",0.00,USD,piece,313
195,3CRBSG2093,"3Com Baseline Plus Switch 2920",0.00,USD,piece,314
196,3CRBSG2893,"3Com Baseline Plus Switch 2928",0.00,USD,piece,314
197,3CRBSG28PWR93,"3Com Baseline Plus Switch 2928 PWR",0.00,USD,piece,314
198,3CRBSG5293,"3Com Baseline Plus Switch 2952",0.00,USD,piece,314
201,3C17768,"3Com Switch 4500G 1-Port 10G XFP",0.00,USD,piece,315
200,3C17767,"3Com Switch 4500G 2-Port 10-Gigabit Local Connection Module",0.00,USD,piece,315
199,3C17766,"3Com Switch 4500G 2-Port 10-Gigabit Module (XFP)",0.00,USD,piece,315
205,3CSFP97,"1000BASE-LH SFP Transceiver",0.00,USD,piece,316
203,3CSFP92,"1000BASE-LX SFP Transceiver",0.00,USD,piece,316
202,3CSFP91,"1000BASE-SX SFP Transceiver",0.00,USD,piece,316
204,3CSFP93,"1000BASE-T SFP Transceiver",0.00,USD,piece,316
208,3CXFP96,"3Com 10GBASE-ER XFP",0.00,USD,piece,316
206,3CXFP92,"3Com 10GBASE-LR XFP",0.00,USD,piece,316
207,3CXFP94,"3Com 10GBASE-SR XFP",0.00,USD,piece,316
229,3CRWX275075A,"3Com Wireless LAN Switch Managed Access Point AP2750",0.00,USD,piece,317
230,3CRWX315075A,"3Com Wireless LAN Switch Managed AP 3150",0.00,USD,piece,317
248,3CRWX220095A,"3Com Wireless LAN Controller WX2200",0.00,USD,piece,318
247,3CRWX120695A,"3Com Wireless LAN Switch WX1200",0.00,USD,piece,318
246,3CRWXR10095A,"3Com Wireless Managed Switch WXR100",0.00,USD,piece,318
276,1933443-1,"AMTRAC Fiber Optic Rack Mount Patch Enclosure, 1U, Unloaded",0.00,USD,piece,322
277,1435593-2,"AMTRAC Fiber Optic Rack Mount Patch Enclosure, 4U, Unloaded",0.00,USD,piece,322
81,5504958-3,"AMP Fiber Optic Cable Assembly, Duplex SC to Dual ST, MM 62.5/125µm, 3m",37.00,USD,piece,333
96,559557-1,"AMP Fiber Optic Snap-In Adapter Plate, Simplex ST, 6-Fiber, MM",28.00,USD,piece,335
404,569477-1,"AMP Field Terminable 110Connect XC Patch Plug, 1-pair",0.00,USD,piece,403
405,569480-1,"AMP Field Terminable 110Connect XC Patch Plug, 4-pair",0.00,USD,piece,403
209,3CGSU05A,"3Com Gigabit Switch 5",0.00,USD,piece,466
210,3CGSU08A,"3Com Gigabit Switch 8",0.00,USD,piece,466
211,3CFSU05,"3Com Switch 5",0.00,USD,piece,466
212,3CFSU08,"3Com Switch 8",0.00,USD,piece,466
215,3C1671600A,"OfficeConnect Gigabit Switch 16",0.00,USD,piece,467
214,3C1670800C,"OfficeConnect Gigabit Switch 8",0.00,USD,piece,467
503,X-1966416-X,"AMP MPO Fiber Optic Cable Assembly, MPO Trunk Cable, P/Flipped, OM1 62.5/125 μm, Orange",0.00,USD,piece,501
504,X-1568751-X,"AMP MPO Fiber Optic Cable Assembly, MPO Trunk Cable, P/Flipped, OM3 50/125 μm XG, Aqua",0.00,USD,piece,501
502,X-1966417-X,"AMP MPO Fiber Optic Cable Assembly, MPO Trunk Cable, P/Flipped, OS1 9/125 μm, Yellow",0.00,USD,piece,501
507,1777054-1,"Angled Label Holder Panel",0.00,USD,piece,505
506,1777040-1,"Straight Label Holder Panel",0.00,USD,piece,505
